{
  "name": "rnb-fonts",
  "css_prefix_text": "icon-",
  "css_use_suffix": false,
  "hinting": true,
  "units_per_em": 1000,
  "ascent": 850,
  "glyphs": [
    {
      "uid": "5b0ccbd3251e4e07ed1d6460d881d7fc",
      "css": "layer",
      "code": 59401,
      "src": "custom_icons",
      "selected": true,
      "svg": {
        "path": "M628.6 13.9C610 21.8 570.9 38.6 542 51.2 513.1 63.8 473.5 80.8 454.1 89.2 434.6 97.6 379 121.5 330.7 142.5 282.4 163.3 198.4 199.5 144.4 222.8 18.1 277.4 8.9 281.9 3.9 291.3 1.3 296.3 0 306.3 0 319.7 0 343.6 3.9 350.9 21 359.6 26.5 362.5 84.5 387.9 150.1 416 215.5 444.4 285.6 474.5 305.8 483.5 539.9 585 650.7 632.3 660.9 635.2 669 637.3 674.8 637.3 683.2 634.9 692.4 632.5 817.6 579.3 960.6 517.1 980.1 508.4 1069.8 469.8 1160.1 430.7 1286.4 376.4 1326.5 358 1334.1 351.2 1343.8 342 1343.8 342 1343.8 320.5 1343.8 306.6 1342.5 296.3 1339.9 291.3 1334.9 281.9 1326.2 277.7 1199.5 222.8 1145.4 199.5 1061.4 163.3 1013.1 142.5 700.8 7.3 687.4 1.8 674.8 0.8 664.8 0 656.7 2.1 628.6 13.9ZM689.2 104.7C705 111 1063.5 266.1 1147 302.4 1163.5 309.7 1178.2 316.5 1179.3 317.6 1181.1 319.2 1109.2 350.9 863.5 457 821 475.3 761.4 501 731 514.2 700.8 527.3 674 538.1 671.9 538.1 669.8 538.1 636.7 524.4 598.4 507.9 266.1 364.3 171.1 323.4 166.9 321.8 158.3 318.6 152.5 321.8 266.4 272.2 288.2 263 366.7 228.9 440.9 196.9 515.2 164.8 597.4 129.1 623.4 117.8 649.3 106.6 670.9 97.1 670.9 97.1 671.1 97.1 679.3 100.5 689.2 104.7ZM18.9 459.6C3.9 466.9 0 475.6 0 499.7 0 521.3 2.6 529.1 11.5 536 16.8 539.9 131 589.8 321.5 671.9 370.3 692.9 555.6 773.2 620.7 801.3 670.1 822.6 673.8 822.6 723.1 801.3 812.9 762.5 922.8 714.7 955.4 700.8 1003.7 680.1 1047.8 660.9 1198.2 596.1 1349.6 530.7 1343.8 534.4 1343.8 501.3 1343.8 475.3 1340.2 466.9 1324.7 459.6 1302.6 448.8 1296.9 450.7 1171.9 505.2 1143 517.8 1107.6 533.1 1093.2 539.4 1078.7 545.4 996.6 580.8 910.8 618.1 824.9 655.1 736 693.7 713.1 703.4L671.9 721.5 638.3 706.8C619.9 699 593.2 687.4 578.7 681.1 564.3 675.1 516.5 654.3 472.4 635.2 428.3 616 348.8 581.6 295.3 558.5 242 535.4 172.2 505.2 140.4 491.6 44.9 450.1 40.4 449.1 18.9 459.6ZM24.9 638.6C4.5 646.7 0 654.3 0 680.8 0 703.9 3.1 712.1 14.2 718.9 20.7 723.1 191.1 797.4 378 878 415.5 894 441.5 905.2 585.3 967.5 648.6 994.8 659.3 998.7 671.9 998.7 687.1 998.7 687.4 998.7 880.6 914.7 909.4 902.1 949.1 885 968.5 876.6 1202.4 776.1 1321.8 723.9 1329.7 718.9 1340.9 712.1 1343.8 703.9 1343.8 679.8 1343.8 660.4 1343.3 658.3 1336 650.1 1328.1 641.2 1313.6 635.2 1300.3 635.2 1291.6 635.2 1272.7 643 1148.3 696.9 1099.2 718.1 1037.8 744.9 1011.8 755.9 985.8 767.2 910.8 799.5 845.1 828.1 779.5 856.7 713.6 885 698.7 891.3L671.7 902.6 644.9 891.3C630.2 885 582.2 864.3 538.1 845.1 403.7 786.9 278.2 732.8 122 665.4 54.1 636 40.4 632.3 24.9 638.6Z",
        "width": 1344
      },
      "search": [
        "layer"
      ]
    },
    {
      "uid": "a0927d285c7b20afd426df80f0042710",
      "css": "calendar",
      "code": 59400,
      "src": "custom_icons",
      "selected": true,
      "svg": {
        "path": "M114 58.7L114 117.4 57 117.4 0 117.4 0 558.7 0 1000 500.9 1000 1001.7 1000 1001.7 558.7 1001.7 117.4 942.1 117.4 882.6 117.4 882.6 58.7 882.6 0 835.9 0 789.3 0 789.3 58.7 789.3 117.4 510.4 117.4 231.4 117.4 231.4 58.7 231.4 0 172.7 0 114 0 114 58.7ZM231.4 174.4L231.4 231.4 172.7 231.4 114 231.4 114 174.4 114 117.4 172.7 117.4 231.4 117.4 231.4 174.4ZM882.6 174.4L882.6 231.4 835.9 231.4 789.3 231.4 789.3 174.4 789.3 117.4 835.9 117.4 882.6 117.4 882.6 174.4ZM231.4 615.7L231.4 675.3 172.7 675.3 114 675.3 114 615.7 114 556.1 172.7 556.1 231.4 556.1 231.4 615.7ZM438.7 615.7L438.7 675.3 382.6 675.3 326.4 675.3 326.4 615.7 326.4 556.1 382.6 556.1 438.7 556.1 438.7 615.7ZM675.3 615.7L675.3 675.3 616.6 675.3 557.9 675.3 557.9 615.7 557.9 556.1 616.6 556.1 675.3 556.1 675.3 615.7ZM882.6 615.7L882.6 675.3 835.9 675.3 789.3 675.3 789.3 615.7 789.3 556.1 835.9 556.1 882.6 556.1 882.6 615.7ZM231.4 837.7L231.4 882.6 172.7 882.6 114 882.6 114 837.7 114 792.7 172.7 792.7 231.4 792.7 231.4 837.7ZM438.7 837.7L438.7 882.6 382.6 882.6 326.4 882.6 326.4 837.7 326.4 792.7 382.6 792.7 438.7 792.7 438.7 837.7ZM675.3 837.7L675.3 882.6 616.6 882.6 557.9 882.6 557.9 837.7 557.9 792.7 616.6 792.7 675.3 792.7 675.3 837.7ZM882.6 837.7L882.6 882.6 835.9 882.6 789.3 882.6 789.3 837.7 789.3 792.7 835.9 792.7 882.6 792.7 882.6 837.7Z",
        "width": 1002
      },
      "search": [
        "calendar"
      ]
    },
    {
      "uid": "13efb407337acd2703de480978ab071d",
      "css": "document",
      "code": 59392,
      "src": "custom_icons",
      "selected": true,
      "svg": {
        "path": "M248.3 74.2L248.3 98.3 223.3 98.3 198.3 98.3 198.3 123.3 198.3 148.3 148.3 148.3 98.3 148.3 98.3 173.3 98.3 198.3 74.2 198.3 50 198.3 50 574.2 50 950 500 950 950 950 950 649.2 950 348.3 924.2 348.3 898.3 348.3 898.3 323.3 898.3 298.3 873.3 298.3 848.3 298.3 848.3 273.3 848.3 248.3 823.3 248.3 798.3 248.3 798.3 223.3 798.3 198.3 773.3 198.3 748.3 198.3 748.3 173.3 748.3 148.3 723.3 148.3 698.3 148.3 698.3 123.3 698.3 98.3 673.3 98.3 648.3 98.3 648.3 74.2 648.3 50 448.3 50 248.3 50 248.3 74.2ZM248.3 523.3L248.3 898.3 223.3 898.3 198.3 898.3 198.3 523.3 198.3 148.3 223.3 148.3 248.3 148.3 248.3 523.3ZM598.3 273.3L598.3 398.3 723.3 398.3 848.3 398.3 848.3 623.3 848.3 848.3 598.3 848.3 348.3 848.3 348.3 498.3 348.3 148.3 473.3 148.3 598.3 148.3 598.3 273.3ZM148.3 548.3L148.3 898.3 123.3 898.3 98.3 898.3 98.3 548.3 98.3 198.3 123.3 198.3 148.3 198.3 148.3 548.3ZM748.3 223.3L748.3 248.3 773.3 248.3 798.3 248.3 798.3 273.3 798.3 298.3 748.3 298.3 698.3 298.3 698.3 248.3 698.3 198.3 723.3 198.3 748.3 198.3 748.3 223.3Z",
        "width": 1000
      },
      "search": [
        "document"
      ]
    },
    {
      "uid": "06ab0e0ef4385f1a266516529139d342",
      "css": "sitemap",
      "code": 59416,
      "src": "custom_icons",
      "selected": true,
      "svg": {
        "path": "M382.7 191.3L382.7 305.8 575 305.8 767.3 305.8 767.3 191.3 767.3 76.9 575 76.9 382.7 76.9 382.7 191.3ZM690.4 190.4L690.4 228.8 575 228.8 459.6 228.8 459.6 190.4 459.6 151.9 575 151.9 690.4 151.9 690.4 190.4ZM536.5 421.2L536.5 459.6 382.7 459.6 228.8 459.6 228.8 536.5 228.8 613.5 267.3 613.5 305.8 613.5 305.8 575 305.8 536.5 575 536.5 844.2 536.5 844.2 575 844.2 613.5 882.7 613.5 921.2 613.5 921.2 536.5 921.2 459.6 767.3 459.6 613.5 459.6 613.5 421.2 613.5 382.7 575 382.7 536.5 382.7 536.5 421.2ZM76.9 806.7L76.9 923.1 268.3 923.1 459.6 923.1 459.6 806.7 459.6 690.4 268.3 690.4 76.9 690.4 76.9 806.7ZM382.7 805.8L382.7 844.2 267.3 844.2 151.9 844.2 151.9 805.8 151.9 767.3 267.3 767.3 382.7 767.3 382.7 805.8ZM690.4 806.7L690.4 923.1 883.7 923.1 1076.9 923.1 1076.9 806.7 1076.9 690.4 883.7 690.4 690.4 690.4 690.4 806.7ZM998.1 805.8L998.1 844.2 882.7 844.2 767.3 844.2 767.3 805.8 767.3 767.3 882.7 767.3 998.1 767.3 998.1 805.8Z",
        "width": 1154
      },
      "search": [
        "sitemap"
      ]
    },
    {
      "uid": "9595a0584d88a6a1b0c5a15f98ae9f43",
      "css": "upload",
      "code": 59419,
      "src": "custom_icons",
      "selected": true,
      "svg": {
        "path": "M448.3 74.2L448.3 98.3 423.3 98.3 398.3 98.3 398.3 123.3 398.3 148.3 373.3 148.3 348.3 148.3 348.3 173.3 348.3 198.3 323.3 198.3 298.3 198.3 298.3 223.3 298.3 248.3 273.3 248.3 248.3 248.3 248.3 273.3 248.3 298.3 223.3 298.3 198.3 298.3 198.3 323.3 198.3 348.3 173.3 348.3 148.3 348.3 148.3 398.3 148.3 448.3 248.3 448.3 348.3 448.3 348.3 598.3 348.3 748.3 498.3 748.3 648.3 748.3 648.3 598.3 648.3 448.3 748.3 448.3 848.3 448.3 848.3 398.3 848.3 348.3 823.3 348.3 798.3 348.3 798.3 323.3 798.3 298.3 773.3 298.3 748.3 298.3 748.3 273.3 748.3 248.3 723.3 248.3 698.3 248.3 698.3 223.3 698.3 198.3 673.3 198.3 648.3 198.3 648.3 173.3 648.3 148.3 623.3 148.3 598.3 148.3 598.3 123.3 598.3 98.3 573.3 98.3 548.3 98.3 548.3 74.2 548.3 50 498.3 50 448.3 50 448.3 74.2ZM548.3 223.3L548.3 248.3 573.3 248.3 598.3 248.3 598.3 273.3 598.3 298.3 623.3 298.3 648.3 298.3 648.3 323.3 648.3 348.3 598.3 348.3 548.3 348.3 548.3 498.3 548.3 648.3 498.3 648.3 448.3 648.3 448.3 498.3 448.3 348.3 398.3 348.3 348.3 348.3 348.3 323.3 348.3 298.3 373.3 298.3 398.3 298.3 398.3 273.3 398.3 248.3 423.3 248.3 448.3 248.3 448.3 223.3 448.3 198.3 498.3 198.3 548.3 198.3 548.3 223.3ZM50 849.2L50 950 500 950 950 950 950 849.2 950 748.3 899.2 748.3 848.3 748.3 848.3 798.3 848.3 848.3 498.3 848.3 148.3 848.3 148.3 798.3 148.3 748.3 99.2 748.3 50 748.3 50 849.2Z",
        "width": 1000
      },
      "search": [
        "upload"
      ]
    },
    {
      "uid": "28b90f6146f3e95b741f4385bb44e35c",
      "css": "user",
      "code": 59417,
      "src": "custom_icons",
      "selected": true,
      "svg": {
        "path": "M466.1 19.3C460.7 20.2 452.5 22.1 448.1 23.7 443.9 25.1 438.8 26.3 436.8 26.3 432.5 26.3 406 37.2 391.2 45.1 340.9 72.1 298.4 125.6 276.5 189.6 273 199.8 270.2 209.8 270.2 211.8 270.2 213.7 268.9 218.1 267.5 221.6 264.6 228.9 260.7 264.9 260.7 287.7 260.5 313.2 264.7 361.2 267.4 366.5 268.8 368.9 270.4 373.9 271.1 377.2 272.6 384.9 281.8 404.2 287.5 412.3 289.8 415.6 295.6 422.3 300 427.2 304.7 432.3 309.8 440.4 312.3 446.5 330 491.6 366.3 535.3 407.5 560.9 418.2 567.5 415.8 566.5 437.7 574.4 460.5 582.8 476.8 584.9 510.5 583.7 532.5 583 539.5 582.1 547 579.1 552.1 577 558.1 575.4 560.5 575.4 562.8 575.4 565.3 574.7 565.8 573.7 566.3 572.8 573.3 568.9 581.2 565.1 589.1 561.2 597.9 556.1 600.9 554 603.7 551.8 611.4 545.8 617.9 540.7 634.4 527.9 660.5 496.1 669.8 477.9 677.2 463.3 683.9 449.6 688.4 440 691.1 434.6 695.6 427.9 698.6 425.4 708.6 417 720.2 398.4 726 381.6 730.2 369.1 732.3 356.1 736.1 317.9 739.5 286.3 738.6 268.8 731.2 227.2 722.3 175.8 693.9 121.2 656 82.5 635.6 61.8 618.8 50.9 574.6 30.5 571.8 29.3 565.8 27.4 561.4 26.5 557 25.4 550 23.5 545.6 21.9 536.1 18.4 482.5 16.8 466.1 19.3ZM397.9 211.1C402.8 213.3 409.5 217.2 412.6 219.5 427 230.4 450.7 240.7 468.8 244 487.7 247.5 517.7 246.5 537 241.6 555.3 236.8 566.5 231.8 584.4 220 604.7 206.5 616.5 203.7 624.9 210.4 631.9 216 640.2 233.3 642.1 246.7 644.6 264.2 647 271.4 651.4 274.6 658.2 279.3 662.6 277.9 669.3 268.6 675.8 259.6 678.2 257.9 685.1 257.9 687.9 257.9 690.5 260 693.3 264.4 697.2 270.7 697.4 272.6 697.4 301.8 697.4 329.3 697 333.9 693.2 345.6 687 364.7 679.1 376.1 668.9 381.1 660.7 385.1 660.4 385.4 654.6 401.8 635.8 454.9 613.7 488.8 582.5 511.9 556 531.8 536.8 538.4 504.4 539.8 484.6 540.7 479.8 540.4 467.5 537 431.4 527.2 408.6 511.8 383 479.8 370.5 464.2 357.9 443.2 354.4 432.3 353.2 428.6 351.2 424.2 350 422.8 348.8 421.4 347.4 417 346.8 413.2 346 404.7 337.9 385.6 334.7 383.9 333.5 383.2 330.2 381.6 327.4 380.4 319.8 377 312.5 366.8 307.5 353.2 300.5 333.7 299.6 328.4 299.5 301.8 299.1 274.2 300.9 265.3 307.5 260.5 314.2 255.8 318.6 257.4 327.2 267.5 336.7 278.6 340.9 279.6 347.7 272.3 351.6 268.4 352.6 265.3 353.5 254.4 354.2 247.2 356.1 238.4 357.7 235.1 359.5 231.8 361.8 226.1 363 222.6 365.4 214.9 375.6 207.2 383.7 207.2 386.7 207 393.2 208.9 397.9 211.1ZM315.4 548.9C311.9 550.9 304.6 555.4 299.1 559.1 293.7 562.8 286.7 567.4 283.5 569.3 268.1 579.1 232.6 615.1 218.8 635.1 217 637.5 213.3 642.6 210.5 646.5 200.9 659.3 193.5 670.9 183.3 689.5 177.7 699.6 172.1 709.1 171.1 710.5 167.5 715.1 145.8 764 139.3 781.9 130.9 805.3 121.8 834.6 120.4 843 119.6 846.7 118.1 851.9 116.8 854.4 115.6 856.8 114 864.7 113.3 871.9 112.8 879.1 111.1 888.6 109.5 892.8 107.7 897.9 106.5 910 105.8 927.2 104.7 953.5 104.7 953.7 109.6 964.6 112.5 970.7 116 976.3 117.7 977.4 119.8 978.4 258.4 978.9 499.5 978.9L878.1 978.9 883 974C885.8 971.2 888.8 966 889.6 962.1 892.5 950.9 891.8 907.7 888.6 895.8 887 890 885.1 879.5 884 872.3 880.9 849.8 866.8 801.2 857.2 779.8 856 776.8 854 772.1 853 769.3 850 760.7 836.7 729.1 835.1 727.2 834.4 726.1 829.8 717.9 824.9 708.8 820.2 699.6 813.9 688.1 810.9 683.3 807.9 678.4 803.7 671.6 801.8 667.9 796.5 658.2 781.2 637.2 769.3 622.8 741.9 590.2 707.5 560.9 683.2 549.6L673.7 545.3 667 551.1C663.5 554 656 561.2 650.4 566.8 620.2 597.2 573.9 621.9 536 628.2 517.4 631.4 484.2 632.1 471.1 629.8 418.4 620.5 383.5 602.1 341.8 561.9 332.5 553 324.2 545.6 323.3 545.6 322.6 545.6 318.9 547.2 315.4 548.9Z",
        "width": 1000
      },
      "search": [
        "user"
      ]
    },
    {
      "uid": "498befc2f68149e41bbf028eea12dc75",
      "css": "phone",
      "code": 59420,
      "src": "custom_icons",
      "selected": true,
      "svg": {
        "path": "M670 68.8L670 100 638.8 100 607.5 100 607.5 130 607.5 160 583.8 160 560 160 560 190 560 220 530 220 500 220 500 245 500 270 470 270 440 270 440 300 440 330 408.8 330 377.5 330 377.5 360 377.5 390 353.8 390 330 390 330 420 330 450 300 450 270 450 270 475 270 500 238.8 500 207.5 500 207.5 530 207.5 560 177.5 560 147.5 560 147.5 590 147.5 620 123.8 620 100 620 100 651.3 100 682.5 68.8 682.5 37.5 682.5 37.5 767.5 37.5 852.5 68.8 852.5 100 852.5 100 882.5 100 912.5 123.8 912.5 147.5 912.5 147.5 936.3 147.5 960 177.5 960 207.5 960 207.5 936.3 207.5 912.5 238.8 912.5 270 912.5 270 882.5 270 852.5 300 852.5 330 852.5 330 821.3 330 790 353.8 790 377.5 790 377.5 760 377.5 730 353.8 730 330 730 330 706.3 330 682.5 300 682.5 270 682.5 270 651.3 270 620 300 620 330 620 330 590 330 560 353.8 560 377.5 560 377.5 530 377.5 500 408.8 500 440 500 440 475 440 450 470 450 500 450 500 420 500 390 530 390 560 390 560 360 560 330 583.8 330 607.5 330 607.5 300 607.5 270 638.8 270 670 270 670 300 670 330 700 330 730 330 730 360 730 390 760 390 790 390 790 360 790 330 815 330 840 330 840 300 840 270 870 270 900 270 900 245 900 220 930 220 960 220 960 190 960 160 930 160 900 160 900 130 900 100 870 100 840 100 840 68.8 840 37.5 755 37.5 670 37.5 670 68.8Z",
        "width": 1000
      },
      "search": [
        "phone"
      ]
    },
    {
      "uid": "474656633f79ea2f1dad59ff63f6bf07",
      "css": "star",
      "code": 59404,
      "src": "fontawesome"
    },
    {
      "uid": "7277ded7695b2a307a5f9d50097bb64c",
      "css": "print",
      "code": 59403,
      "src": "fontawesome"
    },
    {
      "uid": "1b5a5d7b7e3c71437f5a26befdd045ed",
      "css": "doc",
      "code": 59415,
      "src": "fontawesome"
    },
    {
      "uid": "598a5f2bcf3521d1615de8e1881ccd17",
      "css": "clock",
      "code": 59410,
      "src": "fontawesome"
    },
    {
      "uid": "ccddff8e8670dcd130e3cb55fdfc2fd0",
      "css": "down-open",
      "code": 59405,
      "src": "fontawesome"
    },
    {
      "uid": "d870630ff8f81e6de3958ecaeac532f2",
      "css": "left-open",
      "code": 59406,
      "src": "fontawesome"
    },
    {
      "uid": "399ef63b1e23ab1b761dfbb5591fa4da",
      "css": "right-open",
      "code": 59407,
      "src": "fontawesome"
    },
    {
      "uid": "fe6697b391355dec12f3d86d6d490397",
      "css": "up-open",
      "code": 59408,
      "src": "fontawesome"
    },
    {
      "uid": "8e04c98c8f5ca0a035776e3001ad2638",
      "css": "facebook",
      "code": 59398,
      "src": "fontawesome"
    },
    {
      "uid": "e9107949dd6c9e8ab2b29ae07156e38c",
      "css": "linkedin",
      "code": 59399,
      "src": "fontawesome"
    },
    {
      "uid": "85017ab6ca074831a8de771b40e9640c",
      "css": "camera",
      "code": 59412,
      "src": "entypo"
    },
    {
      "uid": "1d2a6c3d9236b88b0f185c7c4530fa52",
      "css": "flag",
      "code": 59418,
      "src": "entypo"
    },
    {
      "uid": "f11c9e95ae5eaa84d193e8fa1d38c6f9",
      "css": "down-open-mini",
      "code": 59394,
      "src": "entypo"
    },
    {
      "uid": "592717bd601645d61517d2a584d04127",
      "css": "left-open-mini",
      "code": 59395,
      "src": "entypo"
    },
    {
      "uid": "37f6cfbb4062ed0d01b351ec35c334ff",
      "css": "right-open-mini",
      "code": 59396,
      "src": "entypo"
    },
    {
      "uid": "9e251fb8e9e1c71ab09683468e0479a3",
      "css": "up-open-mini",
      "code": 59397,
      "src": "entypo"
    },
    {
      "uid": "b945f4ac2439565661e8e4878e35d379",
      "css": "gplus",
      "code": 59393,
      "src": "entypo"
    },
    {
      "uid": "15ba51cbb4d05e6fb88f03a31a7c711c",
      "css": "info-circled-alt",
      "code": 59409,
      "src": "mfglabs"
    },
    {
      "uid": "b6ef4443ecc502136135437837d9724b",
      "css": "mail",
      "code": 59402,
      "src": "elusive"
    },
    {
      "uid": "d4aeb916de8d3aea716442778346d244",
      "css": "plus-circled",
      "code": 59411,
      "src": "elusive"
    },
    {
      "uid": "fc006ff27e50163bdec3a7588226171b",
      "css": "play-circled",
      "code": 59413,
      "src": "elusive"
    },
    {
      "uid": "a58c05a8a3ba59ababd4860a30892560",
      "css": "eye",
      "code": 59414,
      "src": "linecons"
    }
  ]
}